…
library(urltools)

urls <- filter(t, !is.na(urls_expanded_url)) %>% 
    filter(created_at > "2018-01-01 00:00:00") %>%
  unnest(urls_expanded_url) %>% 
  select(urls_expanded_url, is_retweet, status_id, screen_name, created_at) %>%
  mutate(domains = domain(urls_expanded_url))

parsed <- url_parse(urls$urls_expanded_url)

urls %>%
  bind_cols(parsed) %>%
  filter(domains %in% c("youtu.be","www.youtube.com")) %>%
  select(urls_expanded_url)
## # A tibble: 44 x 1
##    urls_expanded_url                 
##    <chr>                             
##  1 https://youtu.be/ORmb-mwSlRU      
##  2 https://youtu.be/cyhIA3Wq_wk      
##  3 https://youtu.be/3qInkCeSTnU      
##  4 https://youtu.be/w6wMu3w88cU      
##  5 https://youtu.be/X98fM-KAdXQ?t=234
##  6 https://youtu.be/WUND6HP1stE      
##  7 https://youtu.be/wYZcPfZwIzE      
##  8 https://youtu.be/jrnRU3ocIH4      
##  9 https://youtu.be/rWNmnt3nSMM      
## 10 https://youtu.be/T_foQoCHQq8      
## # ... with 34 more rows
…
